Lab6/group19_lab6_part3/cpu_wavedata.vcd
$date
	Tue Jul 04 11:00:25 2023
$end
$version
	Icarus Verilog
$end
$timescale
	100ps
$end
$scope module cpu_tb $end
$var wire 1 ! WRITE $end
$var wire 1 " READ $end
$var wire 32 # PC [31:0] $end
$var wire 32 $ MEM_WRITEDATA [31:0] $end
$var wire 1 % MEM_WRITE $end
$var wire 32 & MEM_READDATA [31:0] $end
$var wire 1 ' MEM_READ $end
$var wire 1 ( MEM_BUSYWAIT $end
$var wire 6 ) MEM_ADDRESS [5:0] $end
$var wire 1 * INSTR_BUSYWAIT $end
$var wire 32 + INSTRUCTION [31:0] $end
$var wire 1 , IM_READ $end
$var wire 128 - IM_INSTR [127:0] $end
$var wire 1 . IM_BUSYWAIT $end
$var wire 6 / IM_ADDRESS [5:0] $end
$var wire 8 0 CPU_WRITEDATA [7:0] $end
$var wire 8 1 CPU_READDATA [7:0] $end
$var wire 1 2 BUSYWAIT $end
$var wire 8 3 ADDRESS [7:0] $end
$var reg 1 4 CLK $end
$var reg 1 5 RESET $end
$scope module my_icache $end
$var wire 10 6 address [9:0] $end
$var wire 1 4 clock $end
$var wire 1 7 hit $end
$var wire 128 8 instr_block [127:0] $end
$var wire 1 5 reset $end
$var wire 1 9 valid $end
$var wire 1 : tagMatch $end
$var wire 3 ; tag [2:0] $end
$var wire 32 < readinst [31:0] $end
$var wire 2 = offset [1:0] $end
$var wire 128 > mem_inst [127:0] $end
$var wire 1 . mem_busywait $end
$var wire 3 ? index [2:0] $end
$var wire 3 @ cache_tag [2:0] $end
$var parameter 3 A IDLE $end
$var parameter 3 B MEM_READ $end
$var reg 1 * busywait $end
$var reg 32 C loaded_instr [31:0] $end
$var reg 6 D mem_address [5:0] $end
$var reg 1 , mem_read $end
$var reg 3 E next_state [2:0] $end
$var reg 3 F state [2:0] $end
$var integer 32 G i [31:0] $end
$upscope $end
$scope module my_imemory $end
$var wire 6 H address [5:0] $end
$var wire 1 4 clock $end
$var wire 1 , read $end
$var reg 1 . busywait $end
$var reg 1 I readaccess $end
$var reg 128 J readinst [127:0] $end
$upscope $end
$scope module mycpu $end
$var wire 8 K ADDRESS [7:0] $end
$var wire 1 4 CLK $end
$var wire 32 L INSTRUCTION [31:0] $end
$var wire 1 * INSTR_BUSYWAIT $end
$var wire 1 5 RESET $end
$var wire 8 M WRITEDATA [7:0] $end
$var wire 1 N ZERO $end
$var wire 8 O RESULT [7:0] $end
$var wire 8 P REGWRITEDATA [7:0] $end
$var wire 8 Q READDATA [7:0] $end
$var wire 32 R PCPLUSFOUR [31:0] $end
$var wire 32 S PCJUMP [31:0] $end
$var wire 8 T OPERAND2 [7:0] $end
$var wire 8 U OPERAND1 [7:0] $end
$var wire 32 V NEXTPC [31:0] $end
$var wire 8 W MUX2OUT [7:0] $end
$var wire 8 X MUX1OUT [7:0] $end
$var wire 32 Y FINALJUMPCOUNT [31:0] $end
$var wire 32 Z EXTENDEDJUMPCOUNT [31:0] $end
$var wire 1 2 BUSYWAIT $end
$var reg 3 [ ALU_SELECT [2:0] $end
$var reg 3 \ DESTINATIONADDRESS [2:0] $end
$var reg 8 ] IMMEDIATE [7:0] $end
$var reg 8 ^ JUMPCOUNT [7:0] $end
$var reg 8 _ OPCODE [7:0] $end
$var reg 32 ` PC [31:0] $end
$var reg 1 " READ_D $end
$var reg 3 a SOURCE1ADDRESS [2:0] $end
$var reg 3 b SOURCE2ADDRESS [2:0] $end
$var reg 1 c WRITE $end
$var reg 1 ! WRITE_D $end
$var reg 1 d isBEQ $end
$var reg 1 e isBNE $end
$var reg 1 f isIMMEDIATE $end
$var reg 1 g isJUMP $end
$var reg 1 h isRIGHTSHIFT $end
$var reg 1 i isSUBSTRACT $end
$var reg 8 j twosComplement [7:0] $end
$scope module ALU $end
$var wire 3 k SELECT [2:0] $end
$var wire 1 h SHIFTINDICATOR $end
$var wire 8 l Rotate [7:0] $end
$var wire 8 m Or [7:0] $end
$var wire 8 n LogicalShift [7:0] $end
$var wire 8 o Fwd [7:0] $end
$var wire 8 p DATA2 [7:0] $end
$var wire 8 q DATA1 [7:0] $end
$var wire 8 r ArithmeticShift [7:0] $end
$var wire 8 s And [7:0] $end
$var wire 8 t Add [7:0] $end
$var reg 8 u RESULT [7:0] $end
$var reg 1 N ZERO $end
$var reg 1 v zero_flag $end
$scope module Add_ $end
$var wire 8 w DATA2 [7:0] $end
$var wire 8 x DATA1 [7:0] $end
$var reg 8 y RESULT [7:0] $end
$upscope $end
$scope module And_ $end
$var wire 8 z DATA2 [7:0] $end
$var wire 8 { DATA1 [7:0] $end
$var reg 8 | RESULT [7:0] $end
$upscope $end
$scope module ArithmeticShift_ $end
$var wire 8 } SHIFTAMOUNT [7:0] $end
$var wire 8 ~ OPERAND [7:0] $end
$var reg 8 !" RESULT [7:0] $end
$var reg 7 "" temp [6:0] $end
$var reg 8 #" tempOperand [7:0] $end
$var integer 32 $" j [31:0] $end
$upscope $end
$scope module Forward_ $end
$var wire 8 %" DATA2 [7:0] $end
$var reg 8 &" RESULT [7:0] $end
$upscope $end
$scope module LogicalShift_ $end
$var wire 1 h SHIFTSIDE $end
$var wire 8 '" SHIFTAMOUNT [7:0] $end
$var wire 8 (" OPERAND [7:0] $end
$var reg 8 )" RESULT [7:0] $end
$var reg 7 *" temp [6:0] $end
$var reg 8 +" tempOperand [7:0] $end
$var integer 32 ," i [31:0] $end
$upscope $end
$scope module Or_ $end
$var wire 8 -" DATA2 [7:0] $end
$var wire 8 ." DATA1 [7:0] $end
$var reg 8 /" RESULT [7:0] $end
$upscope $end
$scope module Rotate_ $end
$var wire 8 0" ROTATEAMOUNT [7:0] $end
$var wire 8 1" OPERAND [7:0] $end
$var reg 8 2" RESULT [7:0] $end
$var reg 7 3" temp [6:0] $end
$var reg 1 4" tempLSB $end
$var reg 8 5" tempOperand [7:0] $end
$var integer 32 6" k [31:0] $end
$upscope $end
$upscope $end
$scope module EXTENDOFFSET $end
$var wire 8 7" OFFSET [7:0] $end
$var reg 32 8" EXTENDEDOFFSET [31:0] $end
$upscope $end
$scope module JUMPTO $end
$var wire 32 9" TARGETPC [31:0] $end
$var wire 32 :" JUMPBY [31:0] $end
$var wire 32 ;" CURRENTPC [31:0] $end
$upscope $end
$scope module MUX1 $end
$var wire 8 <" DATA1 [7:0] $end
$var wire 1 i SELECT $end
$var wire 8 =" DATA2 [7:0] $end
$var reg 8 >" OUTPUT [7:0] $end
$upscope $end
$scope module MUX2 $end
$var wire 8 ?" DATA1 [7:0] $end
$var wire 8 @" DATA2 [7:0] $end
$var wire 1 f SELECT $end
$var reg 8 A" OUTPUT [7:0] $end
$upscope $end
$scope module MUX3 $end
$var wire 1 d BEQSELECT $end
$var wire 1 e BNESELECT $end
$var wire 32 B" DATA1 [31:0] $end
$var wire 1 g JUMPSELECT $end
$var wire 1 N ZEROSELECT $end
$var wire 32 C" DATA2 [31:0] $end
$var reg 32 D" OUTPUT [31:0] $end
$upscope $end
$scope module MUX4 $end
$var wire 8 E" DATA2 [7:0] $end
$var wire 1 " SELECT $end
$var wire 8 F" DATA1 [7:0] $end
$var reg 8 G" OUTPUT [7:0] $end
$upscope $end
$scope module NEXTPCVAl $end
$var wire 32 H" IN [31:0] $end
$var reg 32 I" OUT [31:0] $end
$upscope $end
$scope module REGISTER $end
$var wire 1 4 CLK $end
$var wire 8 J" IN [7:0] $end
$var wire 3 K" INADDRESS [2:0] $end
$var wire 8 L" OUT1 [7:0] $end
$var wire 3 M" OUT1ADDRESS [2:0] $end
$var wire 8 N" OUT2 [7:0] $end
$var wire 3 O" OUT2ADDRESS [2:0] $end
$var wire 1 5 RESET $end
$var wire 1 c WRITE $end
$var wire 1 2 BUSYWAIT $end
$var integer 32 P" i [31:0] $end
$upscope $end
$scope module SHIFT $end
$var wire 32 Q" VALUE [31:0] $end
$var wire 32 R" SHIFTEDVALUE [31:0] $end
$upscope $end
$upscope $end
$scope module mydatacache $end
$var wire 8 S" address [7:0] $end
$var wire 3 T" cache_tag [2:0] $end
$var wire 1 4 clock $end
$var wire 8 U" cpu_writeData [7:0] $end
$var wire 1 V" dirty $end
$var wire 1 W" hit $end
$var wire 1 " read $end
$var wire 1 5 reset $end
$var wire 1 ! write $end
$var wire 3 X" tag [2:0] $end
$var wire 2 Y" offset [1:0] $end
$var wire 32 Z" mem_readdata [31:0] $end
$var wire 1 ( mem_busywait $end
$var wire 3 [" index [2:0] $end
$var parameter 3 \" IDLE $end
$var parameter 3 ]" MEM_READ $end
$var parameter 3 ^" MEM_WRITE $end
$var reg 1 2 busywait $end
$var reg 1 _" cache_write $end
$var reg 8 `" cpu_readData [7:0] $end
$var reg 6 a" mem_address [5:0] $end
$var reg 1 ' mem_read $end
$var reg 1 % mem_write $end
$var reg 32 b" mem_writedata [31:0] $end
$var reg 3 c" next_state [2:0] $end
$var reg 3 d" state [2:0] $end
$var reg 1 e" tagmatch $end
$var integer 32 f" i [31:0] $end
$upscope $end
$scope module mydatamemory $end
$var wire 6 g" address [5:0] $end
$var wire 1 4 clock $end
$var wire 1 ' read $end
$var wire 1 5 reset $end
$var wire 1 % write $end
$var wire 32 h" writedata [31:0] $end
$var reg 1 ( busywait $end
$var reg 1 i" readaccess $end
$var reg 32 j" readdata [31:0] $end
$var reg 1 k" writeaccess $end
$var integer 32 l" i [31:0] $end
$upscope $end
$upscope $end
$scope module cpu_tb $end
$scope module mycpu $end
$scope module REGISTER $end
$var reg 8 m" \register[0] [7:0] $end
$upscope $end
$upscope $end
$upscope $end
$scope module cpu_tb $end
$scope module mycpu $end
$scope module REGISTER $end
$var reg 8 n" \register[1] [7:0] $end
$upscope $end
$upscope $end
$upscope $end
$scope module cpu_tb $end
$scope module mycpu $end
$scope module REGISTER $end
$var reg 8 o" \register[2] [7:0] $end
$upscope $end
$upscope $end
$upscope $end
$scope module cpu_tb $end
$scope module mycpu $end
$scope module REGISTER $end
$var reg 8 p" \register[3] [7:0] $end
$upscope $end
$upscope $end
$upscope $end
$scope module cpu_tb $end
$scope module mycpu $end
$scope module REGISTER $end
$var reg 8 q" \register[4] [7:0] $end
$upscope $end
$upscope $end
$upscope $end
$scope module cpu_tb $end
$scope module mycpu $end
$scope module REGISTER $end
$var reg 8 r" \register[5] [7:0] $end
$upscope $end
$upscope $end
$upscope $end
$scope module cpu_tb $end
$scope module mycpu $end
$scope module REGISTER $end
$var reg 8 s" \register[6] [7:0] $end
$upscope $end
$upscope $end
$upscope $end
$scope module cpu_tb $end
$scope module mycpu $end
$scope module REGISTER $end
$var reg 8 t" \register[7] [7:0] $end
$upscope $end
$upscope $end
$upscope $end
$scope module cpu_tb $end
$scope module mydatacache $end
$var reg 32 u" \cacheblock_array[0] [31:0] $end
$upscope $end
$upscope $end
$scope module cpu_tb $end
$scope module mydatacache $end
$var reg 32 v" \cacheblock_array[1] [31:0] $end
$upscope $end
$upscope $end
$scope module cpu_tb $end
$scope module mydatacache $end
$var reg 32 w" \cacheblock_array[2] [31:0] $end
$upscope $end
$upscope $end
$scope module cpu_tb $end
$scope module mydatacache $end
$var reg 32 x" \cacheblock_array[3] [31:0] $end
$upscope $end
$upscope $end
$scope module cpu_tb $end
$scope module mydatacache $end
$var reg 32 y" \cacheblock_array[4] [31:0] $end
$upscope $end
$upscope $end
$scope module cpu_tb $end
$scope module mydatacache $end
$var reg 32 z" \cacheblock_array[5] [31:0] $end
$upscope $end
$upscope $end
$scope module cpu_tb $end
$scope module mydatacache $end
$var reg 32 {" \cacheblock_array[6] [31:0] $end
$upscope $end
$upscope $end
$scope module cpu_tb $end
$scope module mydatacache $end
$var reg 32 |" \cacheblock_array[7] [31:0] $end
$upscope $end
$upscope $end
$scope module cpu_tb $end
$scope module mydatamemory $end
$var reg 8 }" \memory_array[0] [7:0] $end
$upscope $end
$upscope $end
$scope module cpu_tb $end
$scope module mydatamemory $end
$var reg 8 ~" \memory_array[1] [7:0] $end
$upscope $end
$upscope $end
$scope module cpu_tb $end
$scope module mydatamemory $end
$var reg 8 !# \memory_array[2] [7:0] $end
$upscope $end
$upscope $end
$scope module cpu_tb $end
$scope module mydatamemory $end
$var reg 8 "# \memory_array[3] [7:0] $end
$upscope $end
$upscope $end
$scope module cpu_tb $end
$scope module mydatamemory $end
$var reg 8 ## \memory_array[4] [7:0] $end
$upscope $end
$upscope $end
$scope module cpu_tb $end
$scope module mydatamemory $end
$var reg 8 $# \memory_array[5] [7:0] $end
$upscope $end
$upscope $end
$scope module cpu_tb $end
$scope module mydatamemory $end
$var reg 8 %# \memory_array[6] [7:0] $end
$upscope $end
$upscope $end
$scope module cpu_tb $end
$scope module mydatamemory $end
$var reg 8 &# \memory_array[7] [7:0] $end
$upscope $end
$upscope $end
$scope module cpu_tb $end
$scope module mydatamemory $end
$var reg 8 '# \memory_array[8] [7:0] $end
$upscope $end
$upscope $end
$scope module cpu_tb $end
$scope module mydatacache $end
$var reg 1 (# \dirty_array[0] $end
$upscope $end
$upscope $end
$scope module cpu_tb $end
$scope module mydatacache $end
$var reg 1 )# \dirty_array[1] $end
$upscope $end
$upscope $end
$scope module cpu_tb $end
$scope module mydatacache $end
$var reg 1 *# \dirty_array[2] $end
$upscope $end
$upscope $end
$scope module cpu_tb $end
$scope module mydatacache $end
$var reg 1 +# \dirty_array[3] $end
$upscope $end
$upscope $end
$scope module cpu_tb $end
$scope module mydatacache $end
$var reg 1 ,# \dirty_array[4] $end
$upscope $end
$upscope $end
$scope module cpu_tb $end
$scope module mydatacache $end
$var reg 1 -# \dirty_array[5] $end
$upscope $end
$upscope $end
$scope module cpu_tb $end
$scope module mydatacache $end
$var reg 1 .# \dirty_array[6] $end
$upscope $end
$upscope $end
$scope module cpu_tb $end
$scope module mydatacache $end
$var reg 1 /# \dirty_array[7] $end
$upscope $end
$upscope $end
$scope module cpu_tb $end
$scope module mydatacache $end
$var reg 1 0# \valid_array[0] $end
$upscope $end
$upscope $end
$scope module cpu_tb $end
$scope module mydatacache $end
$var reg 1 1# \valid_array[1] $end
$upscope $end
$upscope $end
$scope module cpu_tb $end
$scope module mydatacache $end
$var reg 1 2# \valid_array[2] $end
$upscope $end
$upscope $end
$scope module cpu_tb $end
$scope module mydatacache $end
$var reg 1 3# \valid_array[3] $end
$upscope $end
$upscope $end
$scope module cpu_tb $end
$scope module mydatacache $end
$var reg 1 4# \valid_array[4] $end
$upscope $end
$upscope $end
$scope module cpu_tb $end
$scope module mydatacache $end
$var reg 1 5# \valid_array[5] $end
$upscope $end
$upscope $end
$scope module cpu_tb $end
$scope module mydatacache $end
$var reg 1 6# \valid_array[6] $end
$upscope $end
$upscope $end
$scope module cpu_tb $end
$scope module mydatacache $end
$var reg 1 7# \valid_array[7] $end
$upscope $end
$upscope $end
$scope module cpu_tb $end
$scope module mydatacache $end
$var reg 3 8# \tagArray[0] [2:0] $end
$upscope $end
$upscope $end
$scope module cpu_tb $end
$scope module mydatacache $end
$var reg 3 9# \tagArray[1] [2:0] $end
$upscope $end
$upscope $end
$scope module cpu_tb $end
$scope module mydatacache $end
$var reg 3 :# \tagArray[2] [2:0] $end
$upscope $end
$upscope $end
$scope module cpu_tb $end
$scope module mydatacache $end
$var reg 3 ;# \tagArray[3] [2:0] $end
$upscope $end
$upscope $end
$scope module cpu_tb $end
$scope module mydatacache $end
$var reg 3 <# \tagArray[4] [2:0] $end
$upscope $end
$upscope $end
$scope module cpu_tb $end
$scope module mydatacache $end
$var reg 3 =# \tagArray[5] [2:0] $end
$upscope $end
$upscope $end
$scope module cpu_tb $end
$scope module mydatacache $end
$var reg 3 ># \tagArray[6] [2:0] $end
$upscope $end
$upscope $end
$scope module cpu_tb $end
$scope module mydatacache $end
$var reg 3 ?# \tagArray[7] [2:0] $end
$upscope $end
$upscope $end
$enddefinitions $end
$comment Show the parameter values. $end
$dumpall
b10 ^"
b1 ]"
b0 \"
b1 B
b0 A
$end
#0
$dumpvars
bx ?#
bx >#
bx =#
bx <#
bx ;#
bx :#
bx 9#
bx 8#
x7#
x6#
x5#
x4#
x3#
x2#
x1#
x0#
x/#
x.#
x-#
x,#
x+#
x*#
x)#
x(#
bx '#
bx &#
bx %#
bx $#
bx ##
bx "#
bx !#
bx ~"
bx }"
bx |"
bx {"
bx z"
bx y"
bx x"
bx w"
bx v"
bx u"
bx t"
bx s"
bx r"
bx q"
bx p"
bx o"
bx n"
bx m"
bx l"
xk"
bx j"
xi"
bx h"
bx g"
bx f"
xe"
bx d"
bx c"
bx b"
bx a"
bx `"
x_"
bx ["
bx Z"
bx Y"
bx X"
xW"
xV"
bx U"
bz T"
bx S"
bx00 R"
bx Q"
bx P"
bx O"
bx N"
bx M"
bx L"
bx K"
bx J"
bx I"
bx H"
bx G"
bx F"
bx E"
bx D"
bx C"
bx B"
bx A"
bx @"
bx ?"
bx >"
bx ="
bx <"
bx ;"
bx00 :"
bx 9"
bx 8"
bx 7"
bx 6"
bx 5"
x4"
bx 3"
bx 2"
bx 1"
bx 0"
bx /"
bx ."
bx -"
bx ,"
bx +"
bx *"
bx )"
bx ("
bx '"
bx &"
bx %"
bx $"
bx #"
bx ""
bx !"
bx ~
bx }
bx |
bx {
bx z
bx y
bx x
bx w
xv
bx u
bx t
bx s
bx r
bx q
bx p
bx o
bx n
bx m
bx l
bx k
bx j
xi
xh
xg
xf
xe
xd
xc
bx b
bx a
bx `
bx _
bx ^
bx ]
bx \
bx [
bx Z
bx00 Y
bx X
bx W
bx V
bx U
bx T
bx S
bx R
bx Q
bx P
bx O
xN
bx M
bx L
bx K
bx J
0I
bx H
bx G
bx F
bx E
bx D
bx C
bx @
bx ?
bx >
bx =
bx <
bx ;
x:
x9
bx 8
x7
bx 6
05
04
bx 3
x2
bx 1
bx 0
bx /
0.
bx -
x,
bx +
x*
bx )
x(
x'
bx &
x%
bx $
bx #
x"
x!
$end
#10
b0x @
#20
0,
b0 E
b0xxxxxxxx $
b0xxxxxxxx b"
b0xxxxxxxx h"
0%
0'
b0 c"
b1000 G
b0 F
06#
0.#
05#
0-#
04#
0,#
03#
0+#
02#
0*#
01#
0)#
00#
0(#
b111 f"
b0 d"
0k"
0i"
0(
b0 '#
b0 &#
b0 %#
b0 $#
b0 ##
b0 "#
b0 !#
b0 ~"
b0 }"
b100000000 l"
15
#40
06#
0.#
05#
0-#
04#
0,#
03#
0+#
02#
0*#
01#
0)#
00#
0(#
b111 f"
b1000 G
14
#50
b0 =
b0 ?
b0 ;
1*
b0 6
b0 #
b0 `
b0 H"
b0 t"
b0 s"
b0 r"
b0 q"
b0 p"
b0 o"
b0 n"
b0 m"
b1000 P"
#60
b100 V
b100 D"
b100 R
b100 ;"
b100 C"
b100 I"
b1 E
07
09
05
#80
04
#120
1I
1.
b0 /
b0 D
b0 H
1,
b1 E
b1 F
14
#160
04
#200
14
#240
04
#280
14
#320
04
#360
14
#400
04
#440
14
#480
04
#520
14
#560
04
#600
14
bx00011001 -
bx00011001 >
bx00011001 J
#640
04
#680
14
#720
04
#760
14
#800
04
#840
14
#880
04
#920
14
#960
04
#1000
14
bx0000000000011001 -
bx0000000000011001 >
bx0000000000011001 J
#1040
04
#1080
14
#1120
04
#1160
14
#1200
04
#1240
14
#1280
04
#1320
14
#1360
04
#1400
14
bx000001000000000000011001 -
bx000001000000000000011001 >
bx000001000000000000011001 J
#1440
04
#1480
14
#1520
04
#1560
14
#1600
04
#1640
14
#1680
04
#1720
14
#1760
04
#1800
14
bx00000000000001000000000000011001 -
bx00000000000001000000000000011001 >
bx00000000000001000000000000011001 J
#1840
04
#1880
14
#1920
04
#1960
14
#2000
04
#2040
14
#2080
04
#2120
14
#2160
04
#2200
14
bx0010001100000000000001000000000000011001 -
bx0010001100000000000001000000000000011001 >
bx0010001100000000000001000000000000011001 J
#2240
04
#2280
14
#2320
04
#2360
14
#2400
04
#2440
14
#2480
04
#2520
14
#2560
04
#2600
14
bx000000000010001100000000000001000000000000011001 -
bx000000000010001100000000000001000000000000011001 >
bx000000000010001100000000000001000000000000011001 J
#2640
04
#2680
14
#2720
04
#2760
14
#2800
04
#2840
14
#2880
04
#2920
14
#2960
04
#3000
14
bx00000101000000000010001100000000000001000000000000011001 -
bx00000101000000000010001100000000000001000000000000011001 >
bx00000101000000000010001100000000000001000000000000011001 J
#3040
04
#3080
14
#3120
04
#3160
14
#3200
04
#3240
14
#3280
04
#3320
14
#3360
04
#3400
14
bx0000000000000101000000000010001100000000000001000000000000011001 -
bx0000000000000101000000000010001100000000000001000000000000011001 >
bx0000000000000101000000000010001100000000000001000000000000011001 J
#3440
04
#3480
14
#3520
04
#3560
14
#3600
04
#3640
14
#3680
04
#3720
14
#3760
04
#3800
14
bx000001010000000000000101000000000010001100000000000001000000000000011001 -
bx000001010000000000000101000000000010001100000000000001000000000000011001 >
bx000001010000000000000101000000000010001100000000000001000000000000011001 J
#3840
04
#3880
14
#3920
04
#3960
14
#4000
04
#4040
14
#4080
04
#4120
14
#4160
04
#4200
14
bx00000100000001010000000000000101000000000010001100000000000001000000000000011001 -
bx00000100000001010000000000000101000000000010001100000000000001000000000000011001 >
bx00000100000001010000000000000101000000000010001100000000000001000000000000011001 J
#4240
04
#4280
14
#4320
04
#4360
14
#4400
04
#4440
14
#4480
04
#4520
14
#4560
04
#4600
14
bx0000011000000100000001010000000000000101000000000010001100000000000001000000000000011001 -
bx0000011000000100000001010000000000000101000000000010001100000000000001000000000000011001 >
bx0000011000000100000001010000000000000101000000000010001100000000000001000000000000011001 J
#4640
04
#4680
14
#4720
04
#4760
14
#4800
04
#4840
14
#4880
04
#4920
14
#4960
04
#5000
14
bx000000100000011000000100000001010000000000000101000000000010001100000000000001000000000000011001 -
bx000000100000011000000100000001010000000000000101000000000010001100000000000001000000000000011001 >
bx000000100000011000000100000001010000000000000101000000000010001100000000000001000000000000011001 J
#5040
04
#5080
14
#5120
04
#5160
14
#5200
04
#5240
14
#5280
04
#5320
14
#5360
04
#5400
14
bx01011010000000100000011000000100000001010000000000000101000000000010001100000000000001000000000000011001 -
bx01011010000000100000011000000100000001010000000000000101000000000010001100000000000001000000000000011001 >
bx01011010000000100000011000000100000001010000000000000101000000000010001100000000000001000000000000011001 J
#5440
04
#5480
14
#5520
04
#5560
14
#5600
04
#5640
14
#5680
04
#5720
14
#5760
04
#5800
14
bx0000000001011010000000100000011000000100000001010000000000000101000000000010001100000000000001000000000000011001 -
bx0000000001011010000000100000011000000100000001010000000000000101000000000010001100000000000001000000000000011001 >
bx0000000001011010000000100000011000000100000001010000000000000101000000000010001100000000000001000000000000011001 J
#5840
04
#5880
14
#5920
04
#5960
14
#6000
04
#6040
14
#6080
04
#6120
14
#6160
04
#6200
14
bx000000010000000001011010000000100000011000000100000001010000000000000101000000000010001100000000000001000000000000011001 -
bx000000010000000001011010000000100000011000000100000001010000000000000101000000000010001100000000000001000000000000011001 >
bx000000010000000001011010000000100000011000000100000001010000000000000101000000000010001100000000000001000000000000011001 J
#6240
04
#6280
14
#6320
04
#6360
14
#6400
04
#6440
14
#6480
04
#6520
14
#6560
04
#6600
b0 F
b1 E
14
0I
0.
b10000000001011010000000100000011000000100000001010000000000000101000000000010001100000000000001000000000000011001 -
b10000000001011010000000100000011000000100000001010000000000000101000000000010001100000000000001000000000000011001 >
b10000000001011010000000100000011000000100000001010000000000000101000000000010001100000000000001000000000000011001 J
#6610
bx /
bx D
bx H
0,
#6620
b0 E
x7
b0 @
19
b10000000001011010000000100000011000000100000001010000000000000101000000000010001100000000000001000000000000011001 8
#6629
17
1:
#6630
b0 W
b0 p
b0 w
b0 z
b0 }
b0 %"
b0 '"
b0 -"
b0 0"
b0 A"
b10000 Y
b10000 :"
b10000 R"
b100 Z
b100 8"
b100 Q"
b100 ^
b100 7"
b11001 ]
b11001 ?"
b1 b
b1 O"
b0 a
b0 M"
b100 \
b100 K"
b0 _
b1000000000000011001 +
b1000000000000011001 <
b1000000000000011001 L
b1000000000000011001 C
#6640
b0 P
b0 G"
b0 J"
b11001 W
b11001 p
b11001 w
b11001 z
b11001 }
b11001 %"
b11001 '"
b11001 -"
b11001 0"
b11001 A"
02
b0 3
b0 K
b0 S"
b0 O
b0 u
b0 E"
0v
0*
b1 6"
b1 $"
b1 ,"
b0 s
b0 |
b0 o
b0 &"
0!
0"
1c
b0 [
b0 k
0e
0d
0g
1f
0i
04
#6650
b11001 P
b11001 G"
b11001 J"
b0 X
b0 >"
b0 @"
0W"
0N
b11001 3
b11001 K
b11001 S"
b11001 O
b11001 u
b11001 E"
b11001 m
b11001 /"
b11010 ,"
b0 n
b0 )"
b0 *"
b0 +"
b11010 $"
b0 r
b0 !"
b0 ""
b0 #"
b11010 6"
b0 l
b0 2"
b0 3"
04"
b0 5"
b11001 o
b11001 &"
b0 X"
b0 ["
b0 Y"
b11001 t
b11001 y
b10100 S
b10100 9"
b10100 B"
b0 T
b0 ="
b0 N"
b0 0
b0 M
b0 U"
b0 U
b0 q
b0 x
b0 {
b0 ~
b0 ("
b0 ."
b0 1"
b0 L"
#6659
0e"
#6660
b110 ["
b1 Y"
b0 j
b0 <"
0V"
#6680
14
#6690
b1 =
1*
b100 6
b100 #
b100 `
b100 H"
b11001 q"
#6700
b1000 V
b1000 D"
b100011 W
b100011 p
b100011 w
b100011 z
b100011 }
b100011 %"
b100011 '"
b100011 -"
b100011 0"
b100011 A"
b1000 R
b1000 ;"
b1000 C"
b1000 I"
b10100 Y
b10100 :"
b10100 R"
b101 Z
b101 8"
b101 Q"
b101 ^
b101 7"
b100011 ]
b100011 ?"
b11 b
b11 O"
b101 \
b101 K"
b1010000000000100011 +
b1010000000000100011 <
b1010000000000100011 L
b1010000000000100011 C
#6710
b100011 P
b100011 G"
b100011 J"
b100011 3
b100011 K
b100011 S"
b100011 O
b100011 u
b100011 E"
b100100 6"
b100100 $"
b100100 ,"
b100011 m
b100011 /"
b100011 o
b100011 &"
#6720
0*
b1 X"
b0 ["
b11 Y"
b100011 t
b100011 y
b11100 S
b11100 9"
b11100 B"
04
#6760
14
#6770
b10 =
1*
b1000 6
b1000 #
b1000 `
b1000 H"
b100011 r"
#6780
b1100 V
b1100 D"
b101 W
b101 p
b101 w
b101 z
b101 }
b101 %"
b101 '"
b101 -"
b101 0"
b101 A"
b1100 R
b1100 ;"
b1100 C"
b1100 I"
b11000 Y
b11000 :"
b11000 R"
b110 Z
b110 8"
b110 Q"
b110 ^
b110 7"
b101 ]
b101 ?"
b101 b
b101 O"
b100 a
b100 M"
b110 \
b110 K"
b10 _
b10000001100000010000000101 +
b10000001100000010000000101 <
b10000001100000010000000101 L
b10000001100000010000000101 C
#6790
b0 W
b0 p
b0 w
b0 z
b0 }
b0 %"
b0 '"
b0 -"
b0 0"
b0 A"
b101 m
b101 /"
b110 ,"
b110 $"
b110 6"
b101 o
b101 &"
b1 [
b1 k
0f
#6800
b100011 W
b100011 p
b100011 w
b100011 z
b100011 }
b100011 %"
b100011 '"
b100011 -"
b100011 0"
b100011 A"
b11001 P
b11001 G"
b11001 J"
b100011 X
b100011 >"
b100011 @"
b11001 3
b11001 K
b11001 S"
b11001 O
b11001 u
b11001 E"
0*
b1 6"
14"
b11001 5"
b1 $"
b11001 #"
b1 ,"
b11001 +"
b11001 m
b11001 /"
b0 o
b0 &"
b11001 t
b11001 y
b100100 S
b100100 9"
b100100 B"
b100011 T
b100011 ="
b100011 N"
b11001 0
b11001 M
b11001 U"
b11001 U
b11001 q
b11001 x
b11001 {
b11001 ~
b11001 ("
b11001 ."
b11001 1"
b11001 L"
04
#6810
b1 s
b1 |
b111011 m
b111011 /"
b100100 ,"
b0 +"
b0 n
b0 )"
b0 *"
b100100 $"
b0 #"
b0 r
b0 !"
b0 ""
b100100 6"
14"
b100011 5"
b100011 l
b100011 2"
b100011 3"
b100011 o
b100011 &"
b0 X"
b110 ["
b1 Y"
b11011101 j
b11011101 <"
#6820
b111100 P
b111100 G"
b111100 J"
b111100 3
b111100 K
b111100 S"
b111100 O
b111100 u
b111100 E"
b111100 t
b111100 y
#6830
b1 X"
b111 ["
b0 Y"
#6840
xV"
14
#6850
b11 =
1*
b1100 6
b1100 #
b1100 `
b1100 H"
b111100 s"
#6860
b10000 V
b10000 D"
b10000 R
b10000 ;"
b10000 C"
b10000 I"
b100 Y
b100 :"
b100 R"
b1 Z
b1 8"
b1 Q"
b1 ^
b1 7"
b1011010 ]
b1011010 ?"
b10 b
b10 O"
b0 a
b0 M"
b1 \
b1 K"
b0 _
b10000000001011010 +
b10000000001011010 <
b10000000001011010 L
b10000000001011010 C
#6870
b100011 P
b100011 G"
b100011 J"
b1011010 W
b1011010 p
b1011010 w
b1011010 z
b1011010 }
b1011010 %"
b1011010 '"
b1011010 -"
b1011010 0"
b1011010 A"
b100011 3
b100011 K
b100011 S"
b100011 O
b100011 u
b100011 E"
b0 [
b0 k
1f
#6880
b1011010 P
b1011010 G"
b1011010 J"
b0 X
b0 >"
b0 @"
b1011010 3
b1011010 K
b1011010 S"
b1011010 O
b1011010 u
b1011010 E"
0*
b0 l
b0 2"
b0 3"
b1011011 6"
04"
b0 5"
b1011011 $"
b1011011 ,"
b1011010 m
b1011010 /"
b0 s
b0 |
b1011010 o
b1011010 &"
b0 ["
b11 Y"
b10100 S
b10100 9"
b10100 B"
b0 T
b0 ="
b0 N"
b0 0
b0 M
b0 U"
b0 U
b0 q
b0 x
b0 {
b0 ~
b0 ("
b0 ."
b0 1"
b0 L"
04
#6890
b10 X"
b110 ["
b10 Y"
b0 j
b0 <"
0V"
b1011010 t
b1011010 y
#6920
14
#6930
b0 =
b1 ?
1*
b10000 6
b10000 #
b10000 `
b10000 H"
b1011010 n"
