Lab6/group19_lab6_part2/cpu_wavedata.vcd
$date
	Wed Jun 28 10:42:24 2023
$end
$version
	Icarus Verilog
$end
$timescale
	100ps
$end
$scope module cpu_tb $end
$var wire 1 ! WRITE $end
$var wire 1 " READ $end
$var wire 32 # PC [31:0] $end
$var wire 32 $ MEM_WRITEDATA [31:0] $end
$var wire 1 % MEM_WRITE $end
$var wire 32 & MEM_READDATA [31:0] $end
$var wire 1 ' MEM_READ $end
$var wire 1 ( MEM_BUSYWAIT $end
$var wire 6 ) MEM_ADDRESS [5:0] $end
$var wire 8 * CPU_WRITEDATA [7:0] $end
$var wire 8 + CPU_READDATA [7:0] $end
$var wire 1 , BUSYWAIT $end
$var wire 8 - ADDRESS [7:0] $end
$var reg 1 . CLK $end
$var reg 32 / INSTRUCTION [31:0] $end
$var reg 1 0 RESET $end
$scope module mycpu $end
$var wire 8 1 ADDRESS [7:0] $end
$var wire 1 . CLK $end
$var wire 32 2 INSTRUCTION [31:0] $end
$var wire 1 0 RESET $end
$var wire 8 3 WRITEDATA [7:0] $end
$var wire 1 4 ZERO $end
$var wire 8 5 RESULT [7:0] $end
$var wire 8 6 REGWRITEDATA [7:0] $end
$var wire 8 7 READDATA [7:0] $end
$var wire 32 8 PCPLUSFOUR [31:0] $end
$var wire 32 9 PCJUMP [31:0] $end
$var wire 8 : OPERAND2 [7:0] $end
$var wire 8 ; OPERAND1 [7:0] $end
$var wire 32 < NEXTPC [31:0] $end
$var wire 8 = MUX2OUT [7:0] $end
$var wire 8 > MUX1OUT [7:0] $end
$var wire 32 ? FINALJUMPCOUNT [31:0] $end
$var wire 32 @ EXTENDEDJUMPCOUNT [31:0] $end
$var wire 1 , BUSYWAIT $end
$var reg 3 A ALU_SELECT [2:0] $end
$var reg 3 B DESTINATIONADDRESS [2:0] $end
$var reg 8 C IMMEDIATE [7:0] $end
$var reg 8 D JUMPCOUNT [7:0] $end
$var reg 8 E OPCODE [7:0] $end
$var reg 32 F PC [31:0] $end
$var reg 1 " READ_D $end
$var reg 3 G SOURCE1ADDRESS [2:0] $end
$var reg 3 H SOURCE2ADDRESS [2:0] $end
$var reg 1 I WRITE $end
$var reg 1 ! WRITE_D $end
$var reg 1 J isBEQ $end
$var reg 1 K isBNE $end
$var reg 1 L isIMMEDIATE $end
$var reg 1 M isJUMP $end
$var reg 1 N isRIGHTSHIFT $end
$var reg 1 O isSUBSTRACT $end
$var reg 8 P twosComplement [7:0] $end
$scope module ALU $end
$var wire 3 Q SELECT [2:0] $end
$var wire 1 N SHIFTINDICATOR $end
$var wire 8 R Rotate [7:0] $end
$var wire 8 S Or [7:0] $end
$var wire 8 T LogicalShift [7:0] $end
$var wire 8 U Fwd [7:0] $end
$var wire 8 V DATA2 [7:0] $end
$var wire 8 W DATA1 [7:0] $end
$var wire 8 X ArithmeticShift [7:0] $end
$var wire 8 Y And [7:0] $end
$var wire 8 Z Add [7:0] $end
$var reg 8 [ RESULT [7:0] $end
$var reg 1 4 ZERO $end
$var reg 1 \ zero_flag $end
$scope module Add_ $end
$var wire 8 ] DATA2 [7:0] $end
$var wire 8 ^ DATA1 [7:0] $end
$var reg 8 _ RESULT [7:0] $end
$upscope $end
$scope module And_ $end
$var wire 8 ` DATA2 [7:0] $end
$var wire 8 a DATA1 [7:0] $end
$var reg 8 b RESULT [7:0] $end
$upscope $end
$scope module ArithmeticShift_ $end
$var wire 8 c SHIFTAMOUNT [7:0] $end
$var wire 8 d OPERAND [7:0] $end
$var reg 8 e RESULT [7:0] $end
$var reg 7 f temp [6:0] $end
$var reg 8 g tempOperand [7:0] $end
$var integer 32 h j [31:0] $end
$upscope $end
$scope module Forward_ $end
$var wire 8 i DATA2 [7:0] $end
$var reg 8 j RESULT [7:0] $end
$upscope $end
$scope module LogicalShift_ $end
$var wire 1 N SHIFTSIDE $end
$var wire 8 k SHIFTAMOUNT [7:0] $end
$var wire 8 l OPERAND [7:0] $end
$var reg 8 m RESULT [7:0] $end
$var reg 7 n temp [6:0] $end
$var reg 8 o tempOperand [7:0] $end
$var integer 32 p i [31:0] $end
$upscope $end
$scope module Or_ $end
$var wire 8 q DATA2 [7:0] $end
$var wire 8 r DATA1 [7:0] $end
$var reg 8 s RESULT [7:0] $end
$upscope $end
$scope module Rotate_ $end
$var wire 8 t ROTATEAMOUNT [7:0] $end
$var wire 8 u OPERAND [7:0] $end
$var reg 8 v RESULT [7:0] $end
$var reg 7 w temp [6:0] $end
$var reg 1 x tempLSB $end
$var reg 8 y tempOperand [7:0] $end
$var integer 32 z k [31:0] $end
$upscope $end
$upscope $end
$scope module EXTENDOFFSET $end
$var wire 8 { OFFSET [7:0] $end
$var reg 32 | EXTENDEDOFFSET [31:0] $end
$upscope $end
$scope module JUMPTO $end
$var wire 32 } TARGETPC [31:0] $end
$var wire 32 ~ JUMPBY [31:0] $end
$var wire 32 !" CURRENTPC [31:0] $end
$upscope $end
$scope module MUX1 $end
$var wire 8 "" DATA1 [7:0] $end
$var wire 1 O SELECT $end
$var wire 8 #" DATA2 [7:0] $end
$var reg 8 $" OUTPUT [7:0] $end
$upscope $end
$scope module MUX2 $end
$var wire 8 %" DATA1 [7:0] $end
$var wire 8 &" DATA2 [7:0] $end
$var wire 1 L SELECT $end
$var reg 8 '" OUTPUT [7:0] $end
$upscope $end
$scope module MUX3 $end
$var wire 1 J BEQSELECT $end
$var wire 1 K BNESELECT $end
$var wire 32 (" DATA1 [31:0] $end
$var wire 1 M JUMPSELECT $end
$var wire 1 4 ZEROSELECT $end
$var wire 32 )" DATA2 [31:0] $end
$var reg 32 *" OUTPUT [31:0] $end
$upscope $end
$scope module MUX4 $end
$var wire 8 +" DATA2 [7:0] $end
$var wire 1 " SELECT $end
$var wire 8 ," DATA1 [7:0] $end
$var reg 8 -" OUTPUT [7:0] $end
$upscope $end
$scope module NEXTPCVAl $end
$var wire 32 ." IN [31:0] $end
$var reg 32 /" OUT [31:0] $end
$upscope $end
$scope module REGISTER $end
$var wire 1 . CLK $end
$var wire 8 0" IN [7:0] $end
$var wire 3 1" INADDRESS [2:0] $end
$var wire 8 2" OUT1 [7:0] $end
$var wire 3 3" OUT1ADDRESS [2:0] $end
$var wire 8 4" OUT2 [7:0] $end
$var wire 3 5" OUT2ADDRESS [2:0] $end
$var wire 1 0 RESET $end
$var wire 1 I WRITE $end
$var wire 1 , BUSYWAIT $end
$var integer 32 6" i [31:0] $end
$upscope $end
$scope module SHIFT $end
$var wire 32 7" VALUE [31:0] $end
$var wire 32 8" SHIFTEDVALUE [31:0] $end
$upscope $end
$upscope $end
$scope module mydatacache $end
$var wire 8 9" address [7:0] $end
$var wire 3 :" cache_tag [2:0] $end
$var wire 1 . clock $end
$var wire 8 ;" cpu_writeData [7:0] $end
$var wire 1 <" dirty $end
$var wire 1 =" hit $end
$var wire 1 " read $end
$var wire 1 0 reset $end
$var wire 1 ! write $end
$var wire 3 >" tag [2:0] $end
$var wire 2 ?" offset [1:0] $end
$var wire 32 @" mem_readdata [31:0] $end
$var wire 1 ( mem_busywait $end
$var wire 3 A" index [2:0] $end
$var parameter 3 B" IDLE $end
$var parameter 3 C" MEM_READ $end
$var parameter 3 D" MEM_WRITE $end
$var reg 1 , busywait $end
$var reg 1 E" cache_write $end
$var reg 8 F" cpu_readData [7:0] $end
$var reg 6 G" mem_address [5:0] $end
$var reg 1 ' mem_read $end
$var reg 1 % mem_write $end
$var reg 32 H" mem_writedata [31:0] $end
$var reg 3 I" next_state [2:0] $end
$var reg 3 J" state [2:0] $end
$var reg 1 K" tagmatch $end
$var integer 32 L" i [31:0] $end
$upscope $end
$scope module mydatamemory $end
$var wire 6 M" address [5:0] $end
$var wire 1 . clock $end
$var wire 1 ' read $end
$var wire 1 0 reset $end
$var wire 1 % write $end
$var wire 32 N" writedata [31:0] $end
$var reg 1 ( busywait $end
$var reg 1 O" readaccess $end
$var reg 32 P" readdata [31:0] $end
$var reg 1 Q" writeaccess $end
$var integer 32 R" i [31:0] $end
$upscope $end
$upscope $end
$scope module cpu_tb $end
$scope module mycpu $end
$scope module REGISTER $end
$var reg 8 S" \register[0] [7:0] $end
$upscope $end
$upscope $end
$upscope $end
$scope module cpu_tb $end
$scope module mycpu $end
$scope module REGISTER $end
$var reg 8 T" \register[1] [7:0] $end
$upscope $end
$upscope $end
$upscope $end
$scope module cpu_tb $end
$scope module mycpu $end
$scope module REGISTER $end
$var reg 8 U" \register[2] [7:0] $end
$upscope $end
$upscope $end
$upscope $end
$scope module cpu_tb $end
$scope module mycpu $end
$scope module REGISTER $end
$var reg 8 V" \register[3] [7:0] $end
$upscope $end
$upscope $end
$upscope $end
$scope module cpu_tb $end
$scope module mycpu $end
$scope module REGISTER $end
$var reg 8 W" \register[4] [7:0] $end
$upscope $end
$upscope $end
$upscope $end
$scope module cpu_tb $end
$scope module mycpu $end
$scope module REGISTER $end
$var reg 8 X" \register[5] [7:0] $end
$upscope $end
$upscope $end
$upscope $end
$scope module cpu_tb $end
$scope module mycpu $end
$scope module REGISTER $end
$var reg 8 Y" \register[6] [7:0] $end
$upscope $end
$upscope $end
$upscope $end
$scope module cpu_tb $end
$scope module mycpu $end
$scope module REGISTER $end
$var reg 8 Z" \register[7] [7:0] $end
$upscope $end
$upscope $end
$upscope $end
$scope module cpu_tb $end
$scope module mydatacache $end
$var reg 32 [" \cacheblock_array[0] [31:0] $end
$upscope $end
$upscope $end
$scope module cpu_tb $end
$scope module mydatacache $end
$var reg 32 \" \cacheblock_array[1] [31:0] $end
$upscope $end
$upscope $end
$scope module cpu_tb $end
$scope module mydatacache $end
$var reg 32 ]" \cacheblock_array[2] [31:0] $end
$upscope $end
$upscope $end
$scope module cpu_tb $end
$scope module mydatacache $end
$var reg 32 ^" \cacheblock_array[3] [31:0] $end
$upscope $end
$upscope $end
$scope module cpu_tb $end
$scope module mydatacache $end
$var reg 32 _" \cacheblock_array[4] [31:0] $end
$upscope $end
$upscope $end
$scope module cpu_tb $end
$scope module mydatacache $end
$var reg 32 `" \cacheblock_array[5] [31:0] $end
$upscope $end
$upscope $end
$scope module cpu_tb $end
$scope module mydatacache $end
$var reg 32 a" \cacheblock_array[6] [31:0] $end
$upscope $end
$upscope $end
$scope module cpu_tb $end
$scope module mydatacache $end
$var reg 32 b" \cacheblock_array[7] [31:0] $end
$upscope $end
$upscope $end
$scope module cpu_tb $end
$scope module mydatamemory $end
$var reg 8 c" \memory_array[0] [7:0] $end
$upscope $end
$upscope $end
$scope module cpu_tb $end
$scope module mydatamemory $end
$var reg 8 d" \memory_array[1] [7:0] $end
$upscope $end
$upscope $end
$scope module cpu_tb $end
$scope module mydatamemory $end
$var reg 8 e" \memory_array[2] [7:0] $end
$upscope $end
$upscope $end
$scope module cpu_tb $end
$scope module mydatamemory $end
$var reg 8 f" \memory_array[3] [7:0] $end
$upscope $end
$upscope $end
$scope module cpu_tb $end
$scope module mydatamemory $end
$var reg 8 g" \memory_array[4] [7:0] $end
$upscope $end
$upscope $end
$scope module cpu_tb $end
$scope module mydatamemory $end
$var reg 8 h" \memory_array[5] [7:0] $end
$upscope $end
$upscope $end
$scope module cpu_tb $end
$scope module mydatamemory $end
$var reg 8 i" \memory_array[6] [7:0] $end
$upscope $end
$upscope $end
$scope module cpu_tb $end
$scope module mydatamemory $end
$var reg 8 j" \memory_array[7] [7:0] $end
$upscope $end
$upscope $end
$scope module cpu_tb $end
$scope module mydatamemory $end
$var reg 8 k" \memory_array[8] [7:0] $end
$upscope $end
$upscope $end
$scope module cpu_tb $end
$scope module mydatacache $end
$var reg 1 l" \dirty_array[0] $end
$upscope $end
$upscope $end
$scope module cpu_tb $end
$scope module mydatacache $end
$var reg 1 m" \dirty_array[1] $end
$upscope $end
$upscope $end
$scope module cpu_tb $end
$scope module mydatacache $end
$var reg 1 n" \dirty_array[2] $end
$upscope $end
$upscope $end
$scope module cpu_tb $end
$scope module mydatacache $end
$var reg 1 o" \dirty_array[3] $end
$upscope $end
$upscope $end
$scope module cpu_tb $end
$scope module mydatacache $end
$var reg 1 p" \dirty_array[4] $end
$upscope $end
$upscope $end
$scope module cpu_tb $end
$scope module mydatacache $end
$var reg 1 q" \dirty_array[5] $end
$upscope $end
$upscope $end
$scope module cpu_tb $end
$scope module mydatacache $end
$var reg 1 r" \dirty_array[6] $end
$upscope $end
$upscope $end
$scope module cpu_tb $end
$scope module mydatacache $end
$var reg 1 s" \dirty_array[7] $end
$upscope $end
$upscope $end
$scope module cpu_tb $end
$scope module mydatacache $end
$var reg 1 t" \valid_array[0] $end
$upscope $end
$upscope $end
$scope module cpu_tb $end
$scope module mydatacache $end
$var reg 1 u" \valid_array[1] $end
$upscope $end
$upscope $end
$scope module cpu_tb $end
$scope module mydatacache $end
$var reg 1 v" \valid_array[2] $end
$upscope $end
$upscope $end
$scope module cpu_tb $end
$scope module mydatacache $end
$var reg 1 w" \valid_array[3] $end
$upscope $end
$upscope $end
$scope module cpu_tb $end
$scope module mydatacache $end
$var reg 1 x" \valid_array[4] $end
$upscope $end
$upscope $end
$scope module cpu_tb $end
$scope module mydatacache $end
$var reg 1 y" \valid_array[5] $end
$upscope $end
$upscope $end
$scope module cpu_tb $end
$scope module mydatacache $end
$var reg 1 z" \valid_array[6] $end
$upscope $end
$upscope $end
$scope module cpu_tb $end
$scope module mydatacache $end
$var reg 1 {" \valid_array[7] $end
$upscope $end
$upscope $end
$scope module cpu_tb $end
$scope module mydatacache $end
$var reg 3 |" \tagArray[0] [2:0] $end
$upscope $end
$upscope $end
$scope module cpu_tb $end
$scope module mydatacache $end
$var reg 3 }" \tagArray[1] [2:0] $end
$upscope $end
$upscope $end
$scope module cpu_tb $end
$scope module mydatacache $end
$var reg 3 ~" \tagArray[2] [2:0] $end
$upscope $end
$upscope $end
$scope module cpu_tb $end
$scope module mydatacache $end
$var reg 3 !# \tagArray[3] [2:0] $end
$upscope $end
$upscope $end
$scope module cpu_tb $end
$scope module mydatacache $end
$var reg 3 "# \tagArray[4] [2:0] $end
$upscope $end
$upscope $end
$scope module cpu_tb $end
$scope module mydatacache $end
$var reg 3 ## \tagArray[5] [2:0] $end
$upscope $end
$upscope $end
$scope module cpu_tb $end
$scope module mydatacache $end
$var reg 3 $# \tagArray[6] [2:0] $end
$upscope $end
$upscope $end
$scope module cpu_tb $end
$scope module mydatacache $end
$var reg 3 %# \tagArray[7] [2:0] $end
$upscope $end
$upscope $end
$enddefinitions $end
$comment Show the parameter values. $end
$dumpall
b10 D"
b1 C"
b0 B"
$end
#0
$dumpvars
bx %#
bx $#
bx ##
bx "#
bx !#
bx ~"
bx }"
bx |"
x{"
xz"
xy"
xx"
xw"
xv"
xu"
xt"
xs"
xr"
xq"
xp"
xo"
xn"
xm"
xl"
bx k"
bx j"
bx i"
bx h"
bx g"
bx f"
bx e"
bx d"
bx c"
bx b"
bx a"
bx `"
bx _"
bx ^"
bx ]"
bx \"
bx ["
bx Z"
bx Y"
bx X"
bx W"
bx V"
bx U"
bx T"
bx S"
bx R"
xQ"
bx P"
xO"
bx N"
bx M"
bx L"
xK"
bx J"
bx I"
bx H"
bx G"
bx F"
xE"
bx A"
bx @"
bx ?"
bx >"
x="
x<"
bx ;"
bz :"
bx 9"
bx00 8"
bx 7"
bx 6"
bx 5"
bx 4"
bx 3"
bx 2"
bx 1"
bx 0"
bx /"
bx ."
bx -"
bx ,"
bx +"
bx *"
bx )"
bx ("
bx '"
bx &"
bx %"
bx $"
bx #"
bx ""
bx !"
bx00 ~
bx }
bx |
bx {
bx z
bx y
xx
bx w
bx v
bx u
bx t
bx s
bx r
bx q
bx p
bx o
bx n
bx m
bx l
bx k
bx j
bx i
bx h
bx g
bx f
bx e
bx d
bx c
bx b
bx a
bx `
bx _
bx ^
bx ]
x\
bx [
bx Z
bx Y
bx X
bx W
bx V
bx U
bx T
bx S
bx R
bx Q
bx P
xO
xN
xM
xL
xK
xJ
xI
bx H
bx G
bx F
bx E
bx D
bx C
bx B
bx A
bx @
bx00 ?
bx >
bx =
bx <
bx ;
bx :
bx 9
bx 8
bx 7
bx 6
bx 5
x4
bx 3
bx 2
bx 1
00
bx /
0.
bx -
x,
bx +
bx *
bx )
x(
x'
bx &
x%
bx $
bx #
x"
x!
$end
#20
b0xxxxxxxx $
b0xxxxxxxx H"
b0xxxxxxxx N"
0%
0'
b0 I"
0z"
0r"
0y"
0q"
0x"
0p"
0w"
0o"
0v"
0n"
0u"
0m"
0t"
0l"
b111 L"
b0 J"
0Q"
0O"
0(
b0 k"
b0 j"
b0 i"
b0 h"
b0 g"
b0 f"
b0 e"
b0 d"
b0 c"
b100000000 R"
10
#40
0z"
0r"
0y"
0q"
0x"
0p"
0w"
0o"
0v"
0n"
0u"
0m"
0t"
0l"
b111 L"
1.
#50
b0 #
b0 F
b0 ."
b0 Z"
b0 Y"
b0 X"
b0 W"
b0 V"
b0 U"
b0 T"
b0 S"
b1000 6"
#60
b100 <
b100 *"
b100 8
b100 !"
b100 )"
b100 /"
00
#70
b0 =
b0 V
b0 ]
b0 `
b0 c
b0 i
b0 k
b0 q
b0 t
b0 '"
b0 ?
b0 ~
b0 8"
b0 @
b0 |
b0 7"
b0 D
b0 {
b10 C
b10 %"
b10 H
b10 5"
b0 G
b0 3"
b0 B
b0 1"
b0 E
b10 /
b10 2
#80
b0 6
b0 -"
b0 0"
b10 =
b10 V
b10 ]
b10 `
b10 c
b10 i
b10 k
b10 q
b10 t
b10 '"
0,
b0 -
b0 1
b0 9"
b0 5
b0 [
b0 +"
0\
b1 z
b1 h
b1 p
b0 Y
b0 b
b0 U
b0 j
0!
0"
1I
b0 A
b0 Q
0K
0J
0M
1L
0O
0.
#90
b10 6
b10 -"
b10 0"
b0 >
b0 $"
b0 &"
0="
04
b10 -
b10 1
b10 9"
b10 5
b10 [
b10 +"
b10 S
b10 s
b11 p
b0 T
b0 m
b0 n
b0 o
b11 h
b0 X
b0 e
b0 f
b0 g
b11 z
b0 R
b0 v
b0 w
0x
b0 y
b10 U
b10 j
b0 >"
b0 A"
b0 ?"
b10 Z
b10 _
b100 9
b100 }
b100 ("
b0 :
b0 #"
b0 4"
b0 *
b0 3
b0 ;"
b0 ;
b0 W
b0 ^
b0 a
b0 d
b0 l
b0 r
b0 u
b0 2"
#99
0K"
#100
b10 ?"
b0 P
b0 ""
0<"
#120
1.
#130
b100 #
b100 F
b100 ."
b10 S"
#140
b1000 <
b1000 *"
b1000 8
b1000 !"
b1000 )"
b1000 /"
#150
b100 =
b100 V
b100 ]
b100 `
b100 c
b100 i
b100 k
b100 q
b100 t
b100 '"
b100 ?
b100 ~
b100 8"
b1 @
b1 |
b1 7"
b1 D
b1 {
b100 C
b100 %"
b100 H
b100 5"
b1 B
b1 1"
b10000000000000100 /
b10000000000000100 2
b10 *
b10 3
b10 ;"
b10 ;
b10 W
b10 ^
b10 a
b10 d
b10 l
b10 r
b10 u
b10 2"
#160
b100 6
b100 -"
b100 0"
b100 -
b100 1
b100 9"
b100 5
b100 [
b100 +"
b100 U
b100 j
0x
b100000 R
b100000 v
b100000 w
b101 z
b100000 y
b0 X
b0 e
b0 f
b101 h
b0 g
b0 T
b0 m
b0 n
b101 p
b0 o
b110 S
b110 s
0.
#170
b1 A"
b0 ?"
b1100 9
b1100 }
b1100 ("
b110 Z
b110 _
#200
1.
#210
b1000 #
b1000 F
b1000 ."
b100 T"
#220
b1100 <
b1100 *"
b1100 8
b1100 !"
b1100 )"
b1100 /"
#230
b110 =
b110 V
b110 ]
b110 `
b110 c
b110 i
b110 k
b110 q
b110 t
b110 '"
b1000 ?
b1000 ~
b1000 8"
b10 @
b10 |
b10 7"
b10 D
b10 {
b110 C
b110 %"
b110 H
b110 5"
b10 B
b10 1"
b100000000000000110 /
b100000000000000110 2
#240
b110 6
b110 -"
b110 0"
b110 -
b110 1
b110 9"
b110 5
b110 [
b110 +"
b10 Y
b10 b
b0 T
b0 m
b0 n
b111 p
b0 o
b0 X
b0 e
b0 f
b111 h
b0 g
0x
b1000 R
b1000 v
b1000 w
b111 z
b1000 y
b110 U
b110 j
0.
#250
b10 ?"
b1000 Z
b1000 _
b10100 9
b10100 }
b10100 ("
#280
1.
#290
b1100 #
b1100 F
b1100 ."
b110 U"
#300
b10000 <
b10000 *"
b10000 8
b10000 !"
b10000 )"
b10000 /"
#310
b1000 =
b1000 V
b1000 ]
b1000 `
b1000 c
b1000 i
b1000 k
b1000 q
b1000 t
b1000 '"
b1100 ?
b1100 ~
b1100 8"
b11 @
b11 |
b11 7"
b11 D
b11 {
b1000 C
b1000 %"
b0 H
b0 5"
b11 B
b11 1"
b110000000000001000 /
b110000000000001000 2
#320
b1000 6
b1000 -"
b1000 0"
b1000 -
b1000 1
b1000 9"
b1000 5
b1000 [
b1000 +"
0x
b10 R
b10 v
b10 w
b1001 z
b10 y
b0 X
b0 e
b0 f
b1001 h
b0 g
b0 T
b0 m
b0 n
b1001 p
b0 o
b1010 S
b1010 s
b0 Y
b0 b
b1000 U
b1000 j
0.
#330
b10 >
b10 $"
b10 &"
b10 A"
b0 ?"
b1010 Z
b1010 _
b11100 9
b11100 }
b11100 ("
b10 :
b10 #"
b10 4"
#340
b11111110 P
b11111110 ""
#360
1.
#370
b10000 #
b10000 F
b10000 ."
b1000 V"
#380
b10100 <
b10100 *"
b10100 8
b10100 !"
b10100 )"
b10100 /"
#390
b1010 =
b1010 V
b1010 ]
b1010 `
b1010 c
b1010 i
b1010 k
b1010 q
b1010 t
b1010 '"
b10000 ?
b10000 ~
b10000 8"
b100 @
b100 |
b100 7"
b100 D
b100 {
b1010 C
b1010 %"
b10 H
b10 5"
b100 B
b100 1"
b1000000000000001010 /
b1000000000000001010 2
#400
b1010 6
b1010 -"
b1010 0"
b1010 -
b1010 1
b1010 9"
b1010 5
b1010 [
b1010 +"
b10 Y
b10 b
b0 T
b0 m
b0 n
b1011 p
b0 o
b0 X
b0 e
b0 f
b1011 h
b0 g
0x
b10000000 y
b10000000 R
b10000000 v
b0 w
b1011 z
b1010 U
b1010 j
0.
#410
b110 >
b110 $"
b110 &"
b10 ?"
b1100 Z
b1100 _
b100100 9
b100100 }
b100100 ("
b110 :
b110 #"
b110 4"
#420
b11111010 P
b11111010 ""
#440
1.
#450
b10100 #
b10100 F
b10100 ."
b1010 W"
#460
b11000 <
b11000 *"
b11000 8
b11000 !"
b11000 )"
b11000 /"
#470
b1 =
b1 V
b1 ]
b1 `
b1 c
b1 i
b1 k
b1 q
b1 t
b1 '"
b10100 ?
b10100 ~
b10100 8"
b101 @
b101 |
b101 7"
b101 D
b101 {
b1 C
b1 %"
b1 H
b1 5"
b101 B
b101 1"
b1010000000000000001 /
b1010000000000000001 2
#480
b1 6
b1 -"
b1 0"
b1 -
b1 1
b1 9"
b1 5
b1 [
b1 +"
1x
b1 R
b1 v
b1 w
b10 z
b1 y
b1 X
b1 e
b1 f
b10 h
b1 g
b1 T
b1 m
b1 n
b10 p
b1 o
b11 S
b11 s
b0 Y
b0 b
b1 U
b1 j
0.
#490
b100 >
b100 $"
b100 &"
b0 A"
b1 ?"
b11 Z
b11 _
b101100 9
b101100 }
b101100 ("
b100 :
b100 #"
b100 4"
#500
b11111100 P
b11111100 ""
#520
1.
#530
b11000 #
b11000 F
b11000 ."
b1 X"
#540
b11100 <
b11100 *"
b11100 8
b11100 !"
b11100 )"
b11100 /"
#550
b11 =
b11 V
b11 ]
b11 `
b11 c
b11 i
b11 k
b11 q
b11 t
b11 '"
b11000 ?
b11000 ~
b11000 8"
b110 @
b110 |
b110 7"
b110 D
b110 {
b11 C
b11 %"
b11 H
b11 5"
b110 B
b110 1"
b1100000000000000011 /
b1100000000000000011 2
#560
b11 6
b11 -"
b11 0"
b11 -
b11 1
b11 9"
b11 5
b11 [
b11 +"
b10 Y
b10 b
b0 T
b0 m
b0 n
b100 p
b0 o
b0 X
b0 e
b0 f
b100 h
b0 g
b1000000 R
b1000000 v
b1000000 w
b100 z
0x
b1000000 y
b11 U
b11 j
0.
#570
b1000 >
b1000 $"
b1000 &"
b11 ?"
b101 Z
b101 _
b110100 9
b110100 }
b110100 ("
b1000 :
b1000 #"
b1000 4"
#580
b11111000 P
b11111000 ""
#600
1.
#610
b11100 #
b11100 F
b11100 ."
b11 Y"
#620
b100000 <
b100000 *"
b100000 8
b100000 !"
b100000 )"
b100000 /"
#630
b101 =
b101 V
b101 ]
b101 `
b101 c
b101 i
b101 k
b101 q
b101 t
b101 '"
b11100 ?
b11100 ~
b11100 8"
b111 @
b111 |
b111 7"
b111 D
b111 {
b101 C
b101 %"
b101 H
b101 5"
b111 B
b111 1"
b1110000000000000101 /
b1110000000000000101 2
#640
b101 6
b101 -"
b101 0"
b101 -
b101 1
b101 9"
b101 5
b101 [
b101 +"
0x
b10000 R
b10000 v
b10000 w
b110 z
b10000 y
b0 X
b0 e
b0 f
b110 h
b0 g
b0 T
b0 m
b0 n
b110 p
b0 o
b111 S
b111 s
b0 Y
b0 b
b101 U
b101 j
0.
#650
b1 >
b1 $"
b1 &"
b1 A"
b1 ?"
b111 Z
b111 _
b111100 9
b111100 }
b111100 ("
b1 :
b1 #"
b1 4"
#660
b11111111 P
b11111111 ""
#680
1.
#690
b100000 #
b100000 F
b100000 ."
b101 Z"
#700
b100100 <
b100100 *"
b100100 8
b100100 !"
b100100 )"
b100100 /"
#710
b0 =
b0 V
b0 ]
b0 `
b0 c
b0 i
b0 k
b0 q
b0 t
b0 '"
b0 ?
b0 ~
b0 8"
b0 @
b0 |
b0 7"
b0 D
b0 {
b0 C
b0 %"
b0 H
b0 5"
b1 G
b1 3"
b0 B
b0 1"
b10000 E
b10000000000000000000100000000 /
b10000000000000000000100000000 2
#720
b0 6
b0 -"
b0 0"
b0 -
b0 1
b0 9"
b0 5
b0 [
b0 +"
b1 I"
1,
b10 S
b10 s
b1 p
b10 o
b1 h
b10 g
b1 z
b10 y
b0 U
b0 j
1!
0I
0.
#730
b10 >
b10 $"
b10 &"
b0 A"
b0 ?"
b100 Z
b100 _
b100100 9
b100100 }
b100100 ("
b10 :
b10 #"
b10 4"
b100 *
b100 3
b100 ;"
b100 ;
b100 W
b100 ^
b100 a
b100 d
b100 l
b100 r
b100 u
b100 2"
#740
b11111110 P
b11111110 ""
b100 y
b100 g
b100 o
b100 S
b100 s
#760
1O"
1(
bx $
bx H"
bx N"
b0 )
b0 G"
b0 M"
1'
b1 I"
b1 J"
1.
#800
0.
#840
b0 &
b0 @"
b0 P"
1.
#880
0.
#920
1.
#960
0.
#1000
1.
#1040
0.
#1080
1.
#1120
0.
#1160
1.
#1200
0.
#1240
b0 J"
b1 I"
1.
0O"
0(
#1250
b0 +
b0 7
b0 ,"
b0 F"
b0 |"
1t"
b0 ["
#1259
0!
b0 I"
1E"
0,
1="
1K"
#1280
0.
#1320
1.
#1330
b100100 #
b100100 F
b100100 ."
b0xxxxxxxx $
b0xxxxxxxx H"
b0xxxxxxxx N"
bx )
bx G"
bx M"
0'
b100 +
b100 7
b100 ,"
b100 F"
1l"
b100 ["
#1340
b101000 <
b101000 *"
b101000 8
b101000 !"
b101000 )"
b101000 /"
1<"
#1350
b100 =
b100 V
b100 ]
b100 `
b100 c
b100 i
b100 k
b100 q
b100 t
b100 '"
b100 C
b100 %"
b100 H
b100 5"
b10 G
b10 3"
b10000000000000000001000000100 /
b10000000000000000001000000100 2
#1360
b100 6
b100 -"
b100 0"
b100 -
b100 1
b100 9"
b100 5
b100 [
b100 +"
0,
b100 Y
b100 b
b101 p
b0 o
b0 T
b0 m
b0 n
b101 h
b0 g
b0 X
b0 e
b0 f
0x
b101 z
b1000000 y
b1000000 R
b1000000 v
b1000000 w
b100 U
b100 j
0!
b101000 9
b101000 }
b101000 ("
0.
#1370
b1010 >
b1010 $"
b1010 &"
0="
bx +
bx 7
bx ,"
bx F"
b1 A"
b1010 Z
b1010 _
b1010 :
b1010 #"
b1010 4"
b110 *
b110 3
b110 ;"
b110 ;
b110 W
b110 ^
b110 a
b110 d
b110 l
b110 r
b110 u
b110 2"
#1379
0K"
#1380
b11110110 P
b11110110 ""
0x
b1100000 R
b1100000 v
b1100000 w
b101 z
b1100000 y
b0 X
b0 e
b0 f
b101 h
b0 g
b0 T
b0 m
b0 n
b101 p
b0 o
b110 S
b110 s
0<"
#1400
1.
#1410
b101000 #
b101000 F
b101000 ."
b110 +
b110 7
b110 ,"
b110 F"
1m"
bx00000110 \"
#1420
b101100 <
b101100 *"
b101100 8
b101100 !"
b101100 )"
b101100 /"
1<"
#1430
b101 =
b101 V
b101 ]
b101 `
b101 c
b101 i
b101 k
b101 q
b101 t
b101 '"
b101 C
b101 %"
b101 H
b101 5"
b100 G
b100 3"
b10000000000000000010000000101 /
b10000000000000000010000000101 2
#1440
b101 6
b101 -"
b101 0"
b101 -
b101 1
b101 9"
b101 5
b101 [
b101 +"
b10 I"
1,
b111 S
b111 s
b0 T
b0 m
b0 n
b110 p
b0 o
b0 X
b0 e
b0 f
b110 h
b0 g
0x
b110000 R
b110000 v
b110000 w
b110 z
b110000 y
b101 U
b101 j
1!
b101100 9
b101100 }
b101100 ("
0.
#1450
b1 >
b1 $"
b1 &"
bx +
bx 7
bx ,"
bx F"
b1 ?"
b1111 Z
b1111 _
b1 :
b1 #"
b1 4"
b1010 *
b1010 3
b1010 ;"
b1010 ;
b1010 W
b1010 ^
b1010 a
b1010 d
b1010 l
b1010 r
b1010 u
b1010 2"
#1460
b11111111 P
b11111111 ""
0x
b1010000 R
b1010000 v
b1010000 w
b110 z
b1010000 y
b0 X
b0 e
b0 f
b110 h
b0 g
b0 T
b0 m
b0 n
b110 p
b0 o
b1111 S
b1111 s
b0 Y
b0 b
